NCEAS Open Science Synthesis for the Delta Science Program - 11 Working with Text Data in R
…
dracula_corp <- gutenberg_download(345)

Determining mirror for Project Gutenberg from https://www.gutenberg.org/robot/harvest

Using mirror http://aleph.gutenberg.org

tidy_dracula <- dracula_corp %>% 
    unnest_tokens(word, text) %>% 
    anti_join(stop_words, by = "word")

tidy_dracula %>% 
    count(word, sort = TRUE)

# A tibble: 9,094 × 2
   word        n
   <chr>   <int>
 1 time      390
 2 van       323
 3 night     310
 4 helsing   301
 5 dear      224
 6 lucy      223
 7 day       221
 8 hand      210
 9 mina      210
10 door      200
# ℹ 9,084 more rows
…
frank_corp <- gutenberg_download(84)

tidy_frank <- frank_corp %>% 
    unnest_tokens(word, text) %>% 
    anti_join(stop_words, by = "word")

tidy_frank %>% 
    count(word, sort = TRUE)

# A tibble: 6,593 × 2
   word          n
   <chr>     <int>
 1 life        115
 2 father      112
 3 eyes        104
 4 time         98
 5 night        90
 6 elizabeth    88
 7 found        87
 8 mind         85
 9 heart        81
10 day          80
# ℹ 6,583 more rows
…
carmilla_corp <- gutenberg_download(10007)

tidy_carmilla <- carmilla_corp %>% 
    unnest_tokens(word, text) %>% 
    anti_join(stop_words, by = "word")

tidy_carmilla %>% 
    count(word, sort = TRUE)

# A tibble: 3,616 × 2
   word         n
   <chr>    <int>
 1 father      87
 2 time        65
 3 carmilla    63
 4 lady        60
 5 madame      48
 6 night       42
 7 door        40
 8 moment      39
 9 dear        38
10 eyes        38
# ℹ 3,606 more rows
…
